MODULE:
make[1]: Entering directory `/usr/src/linux-headers-3.5.0-27-generic'
  CC [M]  /home/lorenzo/repos/linuxmodule/p1.o
/home/lorenzo/repos/linuxmodule/p1.c:1:5: warning: function declaration isn’t a prototype [-Wstrict-prototypes]
/home/lorenzo/repos/linuxmodule/p1.c: In function ‘main’:
/home/lorenzo/repos/linuxmodule/p1.c:3:2: error: implicit declaration of function ‘malloc’ [-Werror=implicit-function-declaration]
/home/lorenzo/repos/linuxmodule/p1.c:3:2: error: implicit declaration of function ‘strlen’ [-Werror=implicit-function-declaration]
/home/lorenzo/repos/linuxmodule/p1.c:3:69: error: ‘MOD_NAME’ undeclared (first use in this function)
/home/lorenzo/repos/linuxmodule/p1.c:3:69: note: each undeclared identifier is reported only once for each function it appears in
/home/lorenzo/repos/linuxmodule/p1.c:4:2: error: implicit declaration of function ‘strcat’ [-Werror=implicit-function-declaration]
/home/lorenzo/repos/linuxmodule/p1.c:4:2: error: implicit declaration of function ‘strcpy’ [-Werror=implicit-function-declaration]
/home/lorenzo/repos/linuxmodule/p1.c:6:2: error: implicit declaration of function ‘open’ [-Werror=implicit-function-declaration]
/home/lorenzo/repos/linuxmodule/p1.c:6:34: error: ‘O_RDONLY’ undeclared (first use in this function)
/home/lorenzo/repos/linuxmodule/p1.c:6:2: warning: ISO C90 forbids mixed declarations and code [-Wdeclaration-after-statement]
/home/lorenzo/repos/linuxmodule/p1.c:8:3: error: implicit declaration of function ‘printf’ [-Werror=implicit-function-declaration]
/home/lorenzo/repos/linuxmodule/p1.c:9:3: error: implicit declaration of function ‘exit’ [-Werror=implicit-function-declaration]
/home/lorenzo/repos/linuxmodule/p1.c:12:2: warning: ISO C90 forbids mixed declarations and code [-Wdeclaration-after-statement]
/home/lorenzo/repos/linuxmodule/p1.c:13:2: error: implicit declaration of function ‘send_message’ [-Werror=implicit-function-declaration]
/home/lorenzo/repos/linuxmodule/p1.c:15:3: error: implicit declaration of function ‘close’ [-Werror=implicit-function-declaration]
/home/lorenzo/repos/linuxmodule/p1.c:20:1: warning: control reaches end of non-void function [-Wreturn-type]
cc1: some warnings being treated as errors
make[2]: *** [/home/lorenzo/repos/linuxmodule/p1.o] Error 1
make[1]: *** [_module_/home/lorenzo/repos/linuxmodule] Error 2
make[1]: Leaving directory `/usr/src/linux-headers-3.5.0-27-generic'
<<<<<<< HEAD
=======

PROCESS:
input_output.c: In function ‘request_message’:
input_output.c:35:11: warning: ‘message’ is used uninitialized in this function [-Wuninitialized]
>>>>>>> parent of 65c07ba... Everything works for now I think.  We haven't met all the requirements of the project but I think we are 70% of the way there. IMPORTANT: to make the files, run sudo sh make.sh and not make, it enables the use of modprobe with this module.  To clean up the files, you still need to run make clean
